Assignment_7.3
…
# Create correlation dataframe for analysis
rs <- correlate(data[sapply(data, is.numeric)])

## 
## Correlation method: 'pearson'
## Missing treated using: 'pairwise.complete.obs'

View(rs %>% select(rowname,hotel_cluster))

# find any features with over 90 correlation
over_90 <- function(x) any(x > .9, na.rm = TRUE)
rs %>% select_if(over_90)

## # A tibble: 22 x 4
##    rowname                    date_time   srch_ci   srch_co
##    <chr>                          <dbl>     <dbl>     <dbl>
##  1 date_time                  NA         0.971     0.970   
##  2 site_name                  -0.0250    0.00196   0.00247 
##  3 posa_continent              0.00925  -0.0125   -0.0134  
##  4 user_location_country       0.00309   0.00700   0.00718 
##  5 user_location_region       -0.0180   -0.00473  -0.00441 
##  6 user_location_city         -0.000436  0.000285  0.000376
##  7 orig_destination_distance  -0.0165    0.0532    0.0548  
##  8 user_id                    -0.0174   -0.0119   -0.0119  
##  9 is_mobile                   0.00189  -0.00549  -0.00563 
## 10 is_package                 -0.0575   -0.0209   -0.0177  
## # ... with 12 more rows
…
